Unleashing SQL
…
--

To execute the query:

```r
ripe_banana %>% dplyr::collect()
```

```
## # A tibble: 34 x 7
##    BananaID TasteRank DatePicked DateEaten  Ripe TreeID Comments             
##       <int>     <int>      <int>     <int> <int>  <int> <chr>                
##  1        2         4   20181003  20181004     1      2 <NA>                 
##  2        3         4   20181003  20181004     1      2 <NA>                 
##  3        4         5   20181003  20181006     1      1 <NA>                 
##  4        5         5   20181003  20181006     1      2 best banana ever     
##  5        6         3   20181003  20181004     1      2 <NA>                 
##  6        8         5   20181002  20181005     1      3 smooth and delectable
##  7        9         3   20181002  20181003     1      4 <NA>                 
##  8       10         3   20181002  20181003     1      5 <NA>                 
##  9       12         5   20181002  20181005     1      4 <NA>                 
## 10       16         5   20181001  20181004     1      5 a culinary delight   
## # ... with 24 more rows
```
…
